lab3_1/dff.log
Command: /home/users14/ab192644/Documents/ece524/lab3_1/./simv -l dff.log
Chronologic VCS simulator copyright 1991-2017
Contains Synopsys proprietary information.
Compiler version N-2017.12-SP2-9_Full64; Runtime version N-2017.12-SP2-9_Full64;  Feb 28 01:09 2023
VCD+ Writer N-2017.12-SP2-9_Full64 Copyright (c) 1991-2017 by Synopsys Inc.
                   0: q = x, qbar = x, clock = 0, data = x, clear = x
                  20: q = x, qbar = x, clock = 1, data = x, clear = x
                  40: q = x, qbar = x, clock = 0, data = 0, clear = 0
                  55: q = x, qbar = 1, clock = 0, data = 0, clear = 0
                  60: q = x, qbar = 1, clock = 1, data = 0, clear = 0
                  62: q = 0, qbar = 1, clock = 1, data = 0, clear = 0
                  80: q = 0, qbar = 1, clock = 0, data = 0, clear = 1
                 100: q = 0, qbar = 1, clock = 1, data = 0, clear = 1
                 120: q = 0, qbar = 1, clock = 0, data = 1, clear = 1
                 140: q = 0, qbar = 1, clock = 1, data = 1, clear = 1
                 160: q = 0, qbar = 1, clock = 0, data = 1, clear = 1
                 163: q = 1, qbar = 1, clock = 0, data = 1, clear = 1
                 170: q = 1, qbar = 0, clock = 0, data = 1, clear = 1
                 180: q = 1, qbar = 0, clock = 1, data = 1, clear = 1
                 200: q = 1, qbar = 0, clock = 0, data = 0, clear = 1
                 220: q = 1, qbar = 0, clock = 1, data = 0, clear = 1
                 240: q = 1, qbar = 0, clock = 0, data = 1, clear = 1
                 242: q = 1, qbar = 1, clock = 0, data = 1, clear = 1
                 249: q = 0, qbar = 1, clock = 0, data = 1, clear = 1
                 260: q = 0, qbar = 1, clock = 1, data = 1, clear = 1
$finish called from file "dff_tb.v", line 49.
$finish at simulation time                  280
           V C S   S i m u l a t i o n   R e p o r t 
Time: 280 ns
CPU Time:      0.270 seconds;       Data structure size:   0.0Mb
Tue Feb 28 01:09:22 2023
